…
  )
) %>% 
  # Remove and rearrange columns
  select(-years, country = countries, -country_years, 
         -starts_with("y_"), -starts_with("c_")) %>% 
  select(country, year, vacation_days, happiness, everything()) %>% 
  # Lag things
  group_by(country) %>% 
  mutate(lag_vacation_days = lag(vacation_days),
         lag_happiness = lag(happiness)) %>% 
  ungroup() %>% 
  # Remove first year now that we've lagged stuff
  filter(year != 0)
panel_data
#> # A tibble: 300 x 8
#>    country  year vacation_days happiness democracy corruption lag_vacation_da…
#>    <chr>   <int>         <dbl>     <dbl>     <dbl>      <dbl>            <dbl>
#>  1 001         1          5.61      40.8     15.7        46.0             6.67
#>  2 001         2          4.87      35.6      8.62       47.8             5.61
#>  3 001         3          3.34      25.6     -2.38       49.6             4.87
#>  4 002         1         18.6      112.      43.9        36.1            17.2 
#>  5 002         2         17.6      103.      33.7        39.9            18.6 
#>  6 002         3         17.8      104.      29.0        43.1            17.6 
#>  7 003         1         11.9       71.9     35.9        50.7            12.3 
#>  8 003         2         13.1       76.1     34.8        52.3            11.9 
#>  9 003         3         13.5       75.0     27.3        52.1            13.1 
#> 10 004         1         10.6       66.0     43.5        51.3            10.5 
#> # … with 290 more rows, and 1 more variable: lag_happiness <dbl>
…
